1.000000e-01
1.123324e-01
1.261857e-01
1.417474e-01
1.592283e-01
1.788650e-01
2.009233e-01
2.257020e-01
2.535364e-01
2.848036e-01
3.199267e-01
3.593814e-01
4.037017e-01
4.534879e-01
5.094138e-01
5.722368e-01
6.428073e-01
7.220809e-01
8.111308e-01
9.111628e-01
1.023531e+00
1.149757e+00
1.291550e+00
1.450829e+00
1.629751e+00
1.830738e+00
2.056512e+00
2.310130e+00
2.595024e+00
2.915053e+00
3.274549e+00
3.678380e+00
4.132012e+00
4.641589e+00
5.214008e+00
5.857021e+00
6.579332e+00
7.390722e+00
8.302176e+00
9.326033e+00
1.047616e+01
1.176812e+01
1.321941e+01
1.484968e+01
1.668101e+01
1.873817e+01
2.104904e+01
2.364489e+01
2.656088e+01
2.983647e+01
3.351603e+01
3.764936e+01
4.229243e+01
4.750810e+01
5.336699e+01
5.994843e+01
6.734151e+01
7.564633e+01
8.497534e+01
9.545485e+01
1.072267e+02
1.204504e+02
1.353048e+02
1.519911e+02
1.707353e+02
1.917910e+02
2.154435e+02
2.420128e+02
2.718588e+02
3.053856e+02
3.430469e+02
3.853529e+02
4.328761e+02
4.862602e+02
5.462277e+02
6.135907e+02
6.892612e+02
7.742637e+02
8.697490e+02
9.770100e+02
1.097499e+03
1.232847e+03
1.384886e+03
1.555676e+03
1.747528e+03
1.963041e+03
2.205131e+03
2.477076e+03
2.782559e+03
3.125716e+03
3.511192e+03
3.944206e+03
4.430621e+03
4.977024e+03
5.590810e+03
6.280291e+03
7.054802e+03
7.924829e+03
8.902151e+03
1.000000e+04
