   3.8163292e-07   4.0900339e+01
   3.8218999e-07   3.2406725e+01
   3.8274707e-07   7.4897954e+01
   3.8330417e-07   3.4447073e+01
   3.8386129e-07   5.2501814e+00
   3.8441841e-07   3.3811201e+01
   3.8497556e-07   2.8347826e+01
   3.8553271e-07   2.2965554e+01
   3.8608989e-07   2.2741064e+01
   3.8664707e-07   1.2511619e+01
   3.8720427e-07   9.9133252e+00
   3.8776149e-07   4.1731496e+01
   3.8831872e-07   2.4316987e+01
   3.8887596e-07   7.2271006e+00
   3.8943322e-07   4.7735728e+00
   3.8999049e-07   2.3649458e+01
   3.9054777e-07   3.5147650e+01
   3.9110507e-07   4.6435970e+00
   3.9166239e-07   3.2211289e+01
   3.9221971e-07   2.5082090e+01
   3.9277706e-07   1.1299696e+01
   3.9333441e-07   5.3761069e+01
   3.9389178e-07   7.1055891e+01
   3.9444916e-07   1.3207718e+01
   3.9500656e-07   1.0911958e+01
   3.9556397e-07   2.1626890e+00
   3.9612139e-07   8.5733544e+00
   3.9667883e-07   3.6113625e+01
   3.9723628e-07   2.5267883e+01
   3.9779374e-07   8.3492317e+00
   3.9835122e-07   2.2762031e+01
   3.9890871e-07   0.0000000e+00
   3.9946621e-07   6.1023851e+00
   4.0002373e-07   1.2101702e+01
   4.0058126e-07   3.7981014e+01
   4.0113881e-07   1.5850940e+01
   4.0169636e-07   3.9280844e+00
   4.0225393e-07   1.5576135e+01
   4.0281152e-07   0.0000000e+00
   4.0336911e-07   2.1052191e+01
   4.0392672e-07   1.1385989e+01
   4.0448434e-07   2.6344705e+01
   4.0504198e-07   2.2393466e+01
   4.0559963e-07   2.7759920e+01
   4.0615729e-07   1.8354543e+00
   4.0671496e-07   1.2743463e+01
   4.0727265e-07   1.8057768e+00
   4.0783035e-07   2.8660712e+01
   4.0838806e-07   4.4426060e+01
   4.0894578e-07   1.9393165e+01
   4.0950352e-07   1.5742863e+01
   4.1006127e-07   2.6032684e+01
   4.1061903e-07   2.9260828e+01
   4.1117680e-07   1.3657368e+01
   4.1173459e-07   2.5400163e+01
   4.1229239e-07   4.3673222e+01
   4.1285020e-07   0.0000000e+00
   4.1340802e-07   1.4878567e+01
   4.1396586e-07   2.7883462e+01
   4.1452370e-07   1.6274349e+01
   4.1508156e-07   0.0000000e+00
   4.1563944e-07   8.0117370e+00
   4.1619732e-07   4.7701232e+00
   4.1675522e-07   9.4675322e+00
   4.1731312e-07   3.1319722e+00
   4.1787104e-07   1.3988062e+01
   4.1842898e-07   3.0852943e+01
   4.1898692e-07   1.0718654e+01
   4.1954487e-07   6.0799709e+00
   4.2010284e-07   7.5442753e+00
   4.2066082e-07   1.3478645e+01
   4.2121881e-07   3.2704429e+01
   4.2177681e-07   1.1805318e+01
   4.2233482e-07   1.0254461e+01
   4.2289285e-07   1.1634690e+01
   4.2345089e-07   5.7756050e+00
   4.2400893e-07   8.6016882e+00
   4.2456699e-07   0.0000000e+00
   4.2512506e-07   0.0000000e+00
   4.2568314e-07   0.0000000e+00
   4.2624124e-07   2.3674773e+01
   4.2679934e-07   2.0737563e+01
   4.2735746e-07   2.1960332e+01
   4.2791558e-07   1.0901442e+01
   4.2847372e-07   1.2176818e+01
   4.2903187e-07   0.0000000e+00
   4.2959003e-07   5.7361423e+01
   4.3014820e-07   5.2986852e+00
   4.3070638e-07   3.9463160e+00
   4.3126457e-07   3.0045674e+01
   4.3182278e-07   1.1676183e+01
   4.3238099e-07   1.0307969e+01
   4.3293921e-07   1.2797585e+01
   4.3349745e-07   7.6268309e+00
   4.3405570e-07   5.0505345e+00
   4.3461395e-07   1.2542416e+01
   4.3517222e-07   4.9834862e+00
   4.3573050e-07   1.6086407e+01
   4.3628878e-07   9.8325927e+00
   4.3684708e-07   6.1042192e+00
   4.3740539e-07   7.2763376e+00
   4.3796371e-07   1.0842383e+01
   4.3852204e-07   9.5744044e+00
   4.3908038e-07   1.1889949e+01
   4.3963873e-07   4.3707741e+01
   4.4019709e-07   1.6431247e+01
   4.4075546e-07   1.1660847e+00
   4.4131384e-07   1.1586060e+00
   4.4187223e-07   8.0585570e+00
   4.4243063e-07   1.4871119e+01
   4.4298904e-07   0.0000000e+00
   4.4354746e-07   9.0370003e+00
   4.4410589e-07   1.1226046e+00
   4.4466433e-07   5.5783540e+00
   4.4522278e-07   2.1065984e+01
   4.4578124e-07   1.9831658e+01
   4.4633971e-07   0.0000000e+00
   4.4689818e-07   2.1761282e+00
   4.4745667e-07   1.4057465e+01
   4.4801517e-07   0.0000000e+00
   4.4857368e-07   1.3885923e+01
   4.4913219e-07   1.4863380e+01
   4.4969072e-07   1.4773782e+01
   4.5024925e-07   1.4683396e+01
   4.5080780e-07   8.3381886e+00
   4.5136635e-07   9.3223269e+00
   4.5192492e-07   4.1177364e+00
   4.5248349e-07   5.1156605e+00
   4.5304207e-07   5.0845335e+00
   4.5360066e-07   1.2129078e+01
   4.5415926e-07   2.0093603e+00
   4.5471787e-07   1.5978821e+01
   4.5527649e-07   3.3757532e+01
   4.5583511e-07   8.8852855e+00
   4.5639375e-07   1.3743833e+01
   4.5695239e-07   0.0000000e+00
   4.5751105e-07   9.7078411e-01
   4.5806971e-07   2.0273724e+01
   4.5862838e-07   5.7606344e+00
   4.5918706e-07   1.9097081e+01
   4.5974575e-07   1.3295232e+01
   4.6030444e-07   1.3220438e+01
   4.6086315e-07   1.4082989e+01
   4.6142186e-07   8.4012966e+00
   4.6198058e-07   4.6407514e+00
   4.6253931e-07   1.7534787e+01
   4.6309805e-07   6.4237328e+00
   4.6365680e-07   6.3876896e+00
   4.6421555e-07   1.6333838e+01
   4.6477432e-07   1.8950404e+01
   4.6533309e-07   8.9736815e+00
   4.6589187e-07   1.5170065e+01
   4.6645066e-07   1.5085817e+01
   4.6700945e-07   7.0599992e+00
   4.6756826e-07   1.7553051e+00
   4.6812707e-07   6.9828649e+00
   4.6868589e-07   1.1285504e+01
   4.6924472e-07   1.3814792e+01
   4.6980355e-07   0.0000000e+00
   4.7036240e-07   5.9793394e+00
   4.7092125e-07   5.9475314e+00
   4.7148011e-07   4.2257568e+00
   4.7203898e-07   2.0176864e+01
   4.7259785e-07   3.3452020e+00
   4.7315673e-07   3.3277765e+00
   4.7371562e-07   0.0000000e+00
   4.7427452e-07   0.0000000e+00
   4.7483342e-07   1.7201999e+01
   4.7539233e-07   1.7112666e+01
   4.7595125e-07   4.0532392e+00
   4.7651018e-07   4.0322533e+00
   4.7706911e-07   3.2091867e+00
   4.7762806e-07   7.9818521e+00
   4.7818700e-07   1.1911734e+01
   4.7874596e-07   0.0000000e+00
   4.7930492e-07   1.6508090e+01
   4.7986389e-07   0.0000000e+00
   4.8042287e-07   1.1679004e+01
   4.8098185e-07   3.8759736e+00
   4.8154084e-07   0.0000000e+00
   4.8209984e-07   0.0000000e+00
   4.8265884e-07   2.2954628e+00
   4.8321785e-07   2.0570353e+01
   4.8377687e-07   6.0688297e+00
   4.8433590e-07   6.0429620e+00
   4.8489493e-07   5.2651493e+00
   4.8545397e-07   3.7428489e+00
   4.8601301e-07   1.4898287e+01
   4.8657206e-07   2.2980126e+01
   4.8713112e-07   9.5902225e+00
   4.8769018e-07   7.3415891e-01
   4.8824925e-07   2.9225695e+00
   4.8880833e-07   1.0907390e+01
   4.8936741e-07   1.2303058e+01
   4.8992650e-07   6.4826261e+00
   4.9048560e-07   2.1507821e+00
   4.9104470e-07   9.2767653e+00
   4.9160381e-07   6.3926825e+00
   4.9216292e-07   1.4140582e+00
   4.9272204e-07   6.3341107e+00
   4.9328117e-07   3.5029028e+00
   4.9384030e-07   2.0922004e+01
   4.9439944e-07   0.0000000e+00
   4.9495858e-07   1.1749126e+01
   4.9551773e-07   0.0000000e+00
   4.9607689e-07   1.2328806e+01
   4.9663605e-07   6.8187876e+00
   4.9719521e-07   9.5039138e+00
   4.9775439e-07   1.5544549e+01
   4.9831356e-07   6.0558777e+00
   4.9887275e-07   0.0000000e+00
   4.9943194e-07   1.7342098e+01
   4.9999113e-07   3.9846374e+00
   5.0055033e-07   0.0000000e+00
   5.0110954e-07   1.0533404e+01
   5.0166875e-07   1.0487852e+01
   5.0222797e-07   3.2633409e+00
   5.0278719e-07   1.6896615e+01
   5.0334641e-07   6.4709528e+00
   5.0390565e-07   1.2886887e+01
   5.0446488e-07   0.0000000e+00
   5.0502412e-07   1.3417182e+01
   5.0558337e-07   5.0901225e+00
   5.0614262e-07   6.9700293e+00
   5.0670188e-07   1.0096549e+01
   5.0726114e-07   6.2845091e-01
   5.0782041e-07   6.2588855e-01
   5.0837968e-07   5.6101228e+00
   5.0893896e-07   1.0554041e+01
   5.0949824e-07   8.6565526e+00
   5.1005753e-07   1.1700902e+01
   5.1061682e-07   5.5197328e+00
   5.1117611e-07   4.2755374e+00
   5.1173541e-07   6.0829896e-01
   5.1229472e-07   0.0000000e+00
   5.1285403e-07   0.0000000e+00
   5.1341334e-07   4.8075446e+00
   5.1397266e-07   1.3167670e+01
   5.1453198e-07   5.3652340e+00
   5.1509131e-07   3.5625961e+00
   5.1565064e-07   1.1828601e+00
   5.1620997e-07   4.7128987e+00
   5.1676931e-07   5.8681273e+00
   5.1732866e-07   3.5071858e+00
   5.1788800e-07   1.2227605e+01
   5.1844736e-07   1.2760445e+01
   5.1900671e-07   4.0445361e+00
   5.1956607e-07   8.6336781e+00
   5.2012543e-07   4.5871200e+00
   5.2068480e-07   9.1398689e+00
   5.2124417e-07   5.6910963e+00
   5.2180355e-07   6.2369262e+00
   5.2236293e-07   9.0382821e+00
   5.2292231e-07   5.6280746e+00
   5.2348170e-07   1.1214752e+00
   5.2404109e-07   1.1732341e+01
   5.2460048e-07   1.4472724e+01
   5.2515988e-07   3.8822934e+00
   5.2571928e-07   0.0000000e+00
   5.2627868e-07   0.0000000e+00
   5.2683809e-07   5.4857476e+00
   5.2739750e-07   4.3727280e+00
   5.2795691e-07   7.0800797e+00
   5.2851633e-07   8.1399924e+00
   5.2907575e-07   3.2443487e+00
   5.2963517e-07   5.3879725e+00
   5.3019460e-07   1.0739448e+00
   5.3075403e-07   0.0000000e+00
   5.3131346e-07   1.1741161e+01
   5.3187290e-07   4.2565000e+00
   5.3243234e-07   0.0000000e+00
   5.3299178e-07   3.7018713e+00
   5.3355122e-07   0.0000000e+00
   5.3411067e-07   6.3078459e+00
   5.3467012e-07   1.1529665e+01
   5.3522957e-07   5.7464080e+00
   5.3578903e-07   1.6138129e+01
   5.3634849e-07   5.1878143e-01
   5.3690795e-07   7.2378671e+00
   5.3746741e-07   6.6977547e+00
   5.3802688e-07   2.5672274e+00
   5.3858635e-07   6.6519846e+00
   5.3914582e-07   1.0198974e+00
   5.3970529e-07   4.0657449e+00
   5.4026477e-07   3.0392043e+00
   5.4082424e-07   4.5440968e+00
   5.4138372e-07   8.5556876e+00
   5.4194321e-07   3.0099735e+00
   5.4250269e-07   3.0003543e+00
   5.4306218e-07   0.0000000e+00
   5.4362167e-07   1.0931430e+01
   5.4418116e-07   1.1392138e+01
   5.4474065e-07   5.9249688e+00
   5.4530015e-07   3.4451309e+00
   5.4585964e-07   4.9055775e+00
   5.4641914e-07   8.3123942e+00
   5.4697864e-07   0.0000000e+00
   5.4753814e-07   4.8580842e-01
   5.4809765e-07   2.9054740e+00
   5.4865715e-07   1.9307718e+00
   5.4921666e-07   0.0000000e+00
   5.4977617e-07   7.6738744e+00
   5.5033568e-07   5.2591821e+00
   5.5089519e-07   3.8129300e+00
   5.5145471e-07   9.0275517e+00
   5.5201422e-07   5.6839384e+00
   5.5257374e-07   2.8331872e+00
   5.5313326e-07   2.3537161e+00
   5.5369278e-07   1.8771900e+00
   5.5425230e-07   4.6786062e+00
   5.5481182e-07   2.7985951e+00
   5.5537134e-07   4.6503834e-01
   5.5593086e-07   2.7819912e+00
   5.5649039e-07   3.6984010e+00
   5.5704992e-07   4.6094307e+00
   5.5760944e-07   6.4343154e+00
   5.5816897e-07   3.6660217e+00
   5.5872850e-07   1.8276771e+00
   5.5928803e-07   1.0934246e+01
   5.5984756e-07   9.5397863e+00
   5.6040709e-07   2.2648263e+00
   5.6096662e-07   1.3549877e+00
   5.6152616e-07   7.6562452e+00
   5.6208569e-07   7.1852729e+00
   5.6264522e-07   1.7911964e+00
   5.6320476e-07   1.1163148e+01
   5.6376429e-07   9.3504587e+00
   5.6432383e-07   5.7720147e+00
   5.6488337e-07   9.7404871e+00
   5.6544290e-07   7.9471024e+00
   5.6600244e-07   3.5221535e+00
   5.6656198e-07   3.5123167e+00
   5.6712152e-07   8.3185199e+00
   5.6768105e-07   2.6196053e+00
   5.6824059e-07   0.0000000e+00
   5.6880013e-07   8.6837821e+00
   5.6935967e-07   6.9278910e+00
   5.6991921e-07   7.7724690e+00
   5.7047874e-07   4.7365854e+00
   5.7103828e-07   8.5879293e-01
   5.7159782e-07   1.1989627e+01
   5.7215736e-07   2.5620725e+00
   5.7271689e-07   2.5549788e+00
   5.7327643e-07   4.6711945e+00
   5.7383597e-07   0.0000000e+00
   5.7439551e-07   2.5339314e+00
   5.7495504e-07   4.2116541e+00
   5.7551458e-07   1.6803033e+00
   5.7607412e-07   4.1899713e-01
   5.7663365e-07   4.1792396e+00
   5.7719319e-07   1.2505688e+00
   5.7775272e-07   7.9000867e+00
   5.7831225e-07   4.5621092e+00
   5.7887179e-07   8.6874000e+00
   5.7943132e-07   7.4275120e+00
   5.7999085e-07   1.2347960e+00
   5.8055038e-07   5.7480543e+00
   5.8110991e-07   7.7815873e+00
   5.8166944e-07   5.7196186e+00
   5.8222897e-07   4.0753614e-01
   5.8278849e-07   8.1306612e-01
   5.8334802e-07   8.1106981e-01
   5.8390755e-07   2.8317915e+00
   5.8446707e-07   0.0000000e+00
   5.8502659e-07   8.0513871e-01
   5.8558611e-07   1.6063371e+00
   5.8614564e-07   7.2108724e+00
   5.8670515e-07   3.1970283e+00
   5.8726467e-07   6.3785246e+00
   5.8782419e-07   5.9653763e+00
   5.8838370e-07   7.9346078e+00
   5.8894322e-07   1.5830947e+00
   5.8950273e-07   4.3430370e+00
   5.9006224e-07   1.5754945e+00
   5.9062175e-07   4.7151274e+00
   5.9118126e-07   9.7996372e+00
   5.9174076e-07   3.1283855e+00
   5.9230027e-07   3.5110384e+00
   5.9285977e-07   7.3945530e+00
   5.9341927e-07   4.2708934e+00
   5.9397877e-07   4.6481214e+00
   5.9453827e-07   7.3421361e+00
   5.9509776e-07   1.5420508e+00
   5.9565726e-07   3.0766395e+00
   5.9621675e-07   4.6038202e+00
   5.9677624e-07   3.8272790e+00
   5.9733572e-07   8.0179796e+00
   5.9789521e-07   8.3796596e+00
   5.9845469e-07   1.8999153e+00
   5.9901417e-07   5.3070760e+00
   5.9957365e-07   3.4035746e+00
   6.0013312e-07   0.0000000e+00
   6.0069260e-07   5.6482296e+00
   6.0125207e-07   2.2547473e+00
   6.0181154e-07   6.0005891e+00
   6.0237100e-07   1.8714273e+00
   6.0293047e-07   3.7353710e-01
   6.0348993e-07   4.8462926e+00
   6.0404939e-07   4.4645921e+00
   6.0460884e-07   7.4261981e+00
   6.0516830e-07   3.3349993e+00
   6.0572775e-07   7.0254900e+00
   6.0628719e-07   0.0000000e+00
   6.0684664e-07   6.6273675e+00
   6.0740608e-07   6.2458737e+00
   6.0796552e-07   1.8331246e+00
   6.0852496e-07   2.5609416e+00
   6.0908439e-07   5.8412155e+00
   6.0964382e-07   2.1858384e+00
   6.1020325e-07   3.9990102e+00
   6.1076267e-07   3.9908060e+00
   6.1132209e-07   7.9652708e+00
   6.1188151e-07   4.6971343e+00
   6.1244092e-07   1.0817439e+00
   6.1300033e-07   1.1155275e+01
   6.1355974e-07   3.5911685e-01
   6.1411914e-07   2.8671127e+00
   6.1467854e-07   5.7226283e+00
   6.1523794e-07   2.1417023e+00
   6.1579733e-07   6.7687523e+00
   6.1635672e-07   6.0443942e+00
   6.1691611e-07   1.7742891e+00
   6.1747549e-07   3.5416574e-01
   6.1803487e-07   2.4743345e+00
   6.1859425e-07   1.4111587e+00
   6.1915362e-07   5.6336903e+00
   6.1971299e-07   0.0000000e+00
   6.2027235e-07   8.0672950e+00
   6.2083171e-07   4.5511564e+00
   6.2139107e-07   1.3977138e+00
   6.2195042e-07   5.2315567e+00
   6.2250977e-07   9.0509880e+00
   6.2306911e-07   2.7796949e+00
   6.2362845e-07   4.5085462e+00
   6.2418778e-07   1.0384892e+00
   6.2474712e-07   1.7275866e+00
   6.2530644e-07   6.8977556e-01
   6.2586576e-07   3.4427189e-01
   6.2642508e-07   2.0619492e+00
   6.2698440e-07   7.8900739e+00
   6.2754371e-07   1.7121868e+00
   6.2810301e-07   2.0509812e+00
   6.2866231e-07   8.1894047e+00
   6.2922161e-07   6.8124466e-01
   6.2978090e-07   3.4002160e+00
   6.3034019e-07   5.4304955e+00
   6.3089947e-07   1.2534921e+01
   6.3145874e-07   5.7487135e+00
   6.3201802e-07   1.6876994e+00
   6.3257728e-07   2.3584569e+00
   6.3313655e-07   1.3452288e+00
   6.3369580e-07   0.0000000e+00
   6.3425506e-07   4.6911692e+00
   6.3481430e-07   1.0034251e+00
   6.3537355e-07   6.6781292e+00
   6.3593278e-07   2.0001512e+00
   6.3649202e-07   3.9937490e+00
   6.3705124e-07   0.0000000e+00
   6.3761047e-07   1.9903532e+00
   6.3816968e-07   3.3118476e+00
   6.3872889e-07   3.3064575e-01
   6.3928810e-07   1.0233363e+01
   6.3984730e-07   2.3070110e+00
   6.4040650e-07   1.3161555e+00
   6.4096568e-07   0.0000000e+00
   6.4152487e-07   5.5755838e+00
   6.4208405e-07   3.6019107e+00
   6.4264322e-07   3.2691905e-01
   6.4320239e-07   8.4862275e+00
   6.4376155e-07   1.3034775e+00
   6.4432070e-07   4.5548591e+00
   6.4487985e-07   4.2227439e+00
   6.4543900e-07   5.1882711e+00
   6.4599814e-07   7.1213627e+00
   6.4655727e-07   5.8163699e+00
   6.4711640e-07   1.6128350e+00
   6.4767552e-07   9.6601298e-01
   6.4823463e-07   1.9286617e+00
   6.4879374e-07   4.1715031e+00
   6.4935284e-07   1.9219682e+00
   6.4991194e-07   4.7965974e+00
   6.5047103e-07   4.1512774e+00
   6.5103011e-07   4.1457835e+00
   6.5158919e-07   3.1848495e-01
   6.5214826e-07   2.8625813e+00
   6.5270732e-07   5.7176161e+00
   6.5326638e-07   7.6134527e+00
   6.5382543e-07   0.0000000e+00
   6.5438448e-07   2.8475480e+00
   6.5494351e-07   3.1597938e-01
   6.5550255e-07   2.5241034e+00
   6.5606157e-07   9.4512582e+00
   6.5662059e-07   6.2914473e-01
   6.5717960e-07   2.8269378e+00
   6.5773861e-07   3.1363742e+00
   6.5829760e-07   3.7580645e+00
   6.5885659e-07   5.0033286e+00
   6.5941558e-07   2.1857179e+00
   6.5997456e-07   2.4942734e+00
   6.6053353e-07   0.0000000e+00
   6.6109249e-07   9.3271897e-01
   6.6165144e-07   9.3140918e-01
   6.6221039e-07   1.2401374e+00
   6.6276933e-07   3.7152027e+00
   6.6332827e-07   4.3283422e+00
   6.6388720e-07   1.5436780e+00
   6.6444612e-07   2.4664408e+00
   6.6500503e-07   1.5393796e+00
   6.6556393e-07   6.4566840e+00
   6.6612283e-07   3.3775223e+00
   6.6668172e-07   4.2928891e+00
   6.6724060e-07   3.9809056e+00
   6.6779948e-07   3.0581318e+00
   6.6835834e-07   5.8026753e+00
   6.6891720e-07   2.4399668e+00
   6.6947606e-07   4.8734211e+00
   6.7003490e-07   3.0418317e-01
   6.7059374e-07   2.4302632e+00
   6.7115257e-07   4.8541391e+00
   6.7171139e-07   4.2417975e+00
   6.7227020e-07   3.0258843e-01
   6.7282900e-07   1.5109619e+00
   6.7338780e-07   1.5089868e+00
   6.7394659e-07   2.7126303e+00
   6.7450537e-07   1.8060625e+00
   6.7506414e-07   1.2024952e+00
   6.7562291e-07   3.0027910e+00
   6.7618166e-07   3.5992221e+00
   6.7674041e-07   2.6963285e+00
   6.7729915e-07   2.0947480e+00
   6.7785788e-07   5.3803469e+00
   6.7841660e-07   0.0000000e+00
   6.7897532e-07   0.0000000e+00
   6.7953402e-07   5.9577640e-01
   6.8009272e-07   3.8680773e+00
   6.8065141e-07   2.9717452e+00
   6.8121009e-07   1.7808333e+00
   6.8176876e-07   8.3002502e+00
   6.8232742e-07   1.4803519e+00
   6.8288607e-07   1.1828167e+00
   6.8344472e-07   0.0000000e+00
   6.8400336e-07   1.7698468e+00
   6.8456198e-07   3.2407208e+00
   6.8512060e-07   5.5908418e+00
   6.8567921e-07   0.0000000e+00
   6.8623781e-07   2.6423254e+00
   6.8679640e-07   2.9326127e+00
   6.8735498e-07   0.0000000e+00
   6.8791356e-07   2.3408212e+00
   6.8847212e-07   4.9686657e+00
   6.8903067e-07   2.6275230e+00
   6.8958922e-07   5.8324057e-01
   6.9014776e-07   2.0390446e+00
   6.9070628e-07   9.8925884e+00
   6.9126480e-07   4.0687591e+00
   6.9182331e-07   5.2252844e+00
   6.9238180e-07   6.3791701e+00
   6.9294029e-07   3.7652125e+00
   6.9349877e-07   7.2325487e+00
   6.9405724e-07   3.7566479e+00
   6.9461570e-07   4.3296696e+00
   6.9517415e-07   4.0365429e+00
   6.9573259e-07   2.0161491e+00
   6.9629102e-07   8.0561250e+00
   6.9684944e-07   8.6225052e-01
   6.9740785e-07   7.7521203e+00
   6.9796625e-07   5.7362986e-01
   6.9852464e-07   0.0000000e+00
   6.9908303e-07   1.7172934e+00
   6.9964140e-07   3.1450850e+00
   7.0019976e-07   0.0000000e+00
   7.0075811e-07   2.2829632e+00
   7.0131645e-07   3.1362055e+00
   7.0187478e-07   2.8484926e+00
   7.0243310e-07   0.0000000e+00
   7.0299141e-07   2.8433004e+00
   7.0354971e-07   7.1017785e+00
   7.0410799e-07   1.9866891e+00
   7.0466627e-07   0.0000000e+00
   7.0522454e-07   2.8328058e-01
   7.0578280e-07   0.0000000e+00
   7.0634104e-07   1.9787900e+00
   7.0689928e-07   2.8238709e+00
   7.0745750e-07   1.4104526e+00
   7.0801572e-07   3.6633296e+00
   7.0857392e-07   3.6594905e+00
   7.0913212e-07   3.3744549e+00
   7.0969030e-07   1.9663736e+00
   7.1024847e-07   0.0000000e+00
   7.1080663e-07   7.8512744e+00
   7.1136478e-07   2.8016446e+00
   7.1192292e-07   7.5580201e+00
   7.1248104e-07   1.1187572e+00
   7.1303916e-07   3.0739754e+00
   7.1359726e-07   2.7921575e+00
   7.1415536e-07   5.0216325e+00
   7.1471344e-07   5.0173888e+00
   7.1527151e-07   1.9494899e+00
   7.1582957e-07   2.2259463e+00
   7.1638762e-07   1.3899424e+00
   7.1694566e-07   3.8882783e+00
   7.1750368e-07   5.5496061e-01
   7.1806170e-07   0.0000000e+00
   7.1861970e-07   1.3848700e+00
   7.1917769e-07   5.5344309e+00
   7.1973567e-07   6.0823302e+00
   7.2029364e-07   1.6574397e+00
   7.2085159e-07   2.7603042e-01
   7.2140954e-07   2.2065697e+00
   7.2196747e-07   1.9292863e+00
   7.2252539e-07   5.5080752e-01
   7.2308330e-07   5.5039103e-01
   7.2364120e-07   1.3749379e+00
   7.2419908e-07   4.3964797e+00
   7.2475695e-07   2.7457269e+00
   7.2531481e-07   4.6639833e+00
   7.2587266e-07   4.3859357e+00
   7.2643050e-07   1.9172328e+00
   7.2698832e-07   2.7366021e-01
   7.2754613e-07   3.8280257e+00
   7.2810393e-07   5.4640199e-01
   7.2866172e-07   2.1837758e+00
   7.2921950e-07   4.9093802e+00
   7.2977726e-07   1.6350906e+00
   7.3033501e-07   5.4458435e-01
   7.3089275e-07   4.0810933e+00
   7.3145047e-07   0.0000000e+00
   7.3200818e-07   2.4447184e+00
   7.3256588e-07   1.8999201e+00
   7.3312357e-07   2.4407937e+00
   7.3368124e-07   0.0000000e+00
   7.3423890e-07   2.7076463e-01
   7.3479655e-07   1.6232870e+00
   7.3535419e-07   4.3246154e+00
   7.3591181e-07   1.3500250e+00
   7.3646942e-07   0.0000000e+00
   7.3702702e-07   2.4249587e+00
   7.3758460e-07   1.6149491e+00
   7.3814217e-07   1.6132626e+00
   7.3869973e-07   2.6859662e-01
   7.3925728e-07   0.0000000e+00
   7.3981481e-07   3.4844865e+00
   7.4037233e-07   1.6067868e+00
   7.4092983e-07   5.3515603e-01
   7.4148732e-07   1.0694344e+00
   7.4204480e-07   2.6713956e+00
   7.4260227e-07   6.6730218e+00
   7.4315972e-07   4.8006459e+00
   7.4371715e-07   4.7967227e+00
   7.4427458e-07   2.3964030e+00
   7.4483199e-07   4.2567961e+00
   7.4538939e-07   1.3293188e+00
   7.4594677e-07   5.3138269e-01
   7.4650414e-07   5.8414215e+00
   7.4706149e-07   0.0000000e+00
   7.4761884e-07   5.5686846e+00
   7.4817617e-07   1.8550276e+00
   7.4873348e-07   4.2373226e+00
   7.4929078e-07   2.9112777e+00
   7.4984807e-07   5.2898154e-01
   7.5040534e-07   6.0793694e+00
   7.5096260e-07   3.6981050e+00
   7.5151984e-07   2.6398053e+00
   7.5207707e-07   1.3190546e+00
   7.5263429e-07   1.8454908e+00
   7.5319149e-07   4.4790306e+00
   7.5374867e-07   3.1596414e+00
   7.5430585e-07   1.3156736e+00
   7.5486301e-07   2.8926285e+00
   7.5542015e-07   0.0000000e+00
   7.5597728e-07   0.0000000e+00
   7.5653439e-07   1.8367638e+00
   7.5709149e-07   1.0488117e+00
   7.5764858e-07   1.5720679e+00
   7.5820565e-07   1.0734619e+01
   7.5876271e-07   1.0465157e+00
   7.5931975e-07   5.4902016e+00
   7.5987678e-07   2.8737246e+00
   7.6043379e-07   0.0000000e+00
   7.6099079e-07   4.6966580e+00
   7.6154777e-07   4.4330598e+00
   7.6210474e-07   0.0000000e+00
   7.6266169e-07   3.6463610e+00
   7.6321863e-07   0.0000000e+00
   7.6377555e-07   3.1216951e+00
   7.6433246e-07   2.0798800e+00
   7.6488935e-07   3.8974340e+00
   7.6544623e-07   7.7894255e-01
   7.6600309e-07   5.1892007e+00
   7.6655993e-07   1.5556370e+00
   7.6711677e-07   7.5134910e+00
   7.6767358e-07   2.0711939e+00
   7.6823038e-07   6.9852472e+00
   7.6878717e-07   9.5654897e+00
   7.6934394e-07   5.1668182e+00
   7.6990069e-07   1.0584369e+01
   7.7045743e-07   1.2642133e+01
   7.7101415e-07   2.3722878e+01
   7.7157086e-07   2.5255793e+01
   7.7212755e-07   2.6786984e+01
   7.7268422e-07   3.1662943e+01
   7.7324088e-07   2.9586926e+01
   7.7379753e-07   3.3684435e+01
   7.7435415e-07   4.9341838e+01
   7.7491077e-07   7.0118563e+01
   7.7546736e-07   9.2939888e+01
   7.7602394e-07   1.2190548e+02
   7.7658050e-07   1.7137292e+02
   7.7713705e-07   2.0695477e+02
   7.7769358e-07   2.2123251e+02
   7.7825010e-07   2.2704303e+02
   7.7880660e-07   2.4309557e+02
   7.7936308e-07   2.7424376e+02
   7.7991955e-07   2.7030103e+02
   7.8047600e-07   2.8194830e+02
   7.8103243e-07   3.2196772e+02
   7.8158885e-07   3.8776713e+02
   7.8214525e-07   4.5018417e+02
   7.8270163e-07   4.9645466e+02
   7.8325800e-07   5.0873279e+02
   7.8381435e-07   5.4523806e+02
   7.8437068e-07   5.4141581e+02
   7.8492700e-07   5.1975368e+02
   7.8548330e-07   5.5262515e+02
   7.8603958e-07   6.7255690e+02
   7.8659585e-07   8.0739017e+02
   7.8715210e-07   8.6449684e+02
   7.8770833e-07   8.9510206e+02
   7.8826455e-07   1.0044696e+03
   7.8882075e-07   1.0862946e+03
   7.8937693e-07   1.0575846e+03
   7.8993309e-07   9.8905588e+02
   7.9048924e-07   9.9050911e+02
   7.9104537e-07   1.1043447e+03
   7.9160148e-07   1.1988402e+03
   7.9215758e-07   1.1759148e+03
   7.9271366e-07   1.1443876e+03
   7.9326972e-07   1.2162382e+03
   7.9382576e-07   1.2966557e+03
   7.9438179e-07   1.3086668e+03
   7.9493780e-07   1.3467398e+03
   7.9549379e-07   1.4663526e+03
   7.9604976e-07   1.6929294e+03
   7.9660572e-07   1.8351777e+03
   7.9716166e-07   1.9323503e+03
   7.9771758e-07   2.0072309e+03
   7.9827348e-07   2.1975788e+03
   7.9882936e-07   2.2819639e+03
   7.9938523e-07   2.1174769e+03
   7.9994108e-07   2.0530818e+03
   8.0049691e-07   2.1375935e+03
   8.0105272e-07   2.1993729e+03
   8.0160852e-07   2.1243089e+03
   8.0216429e-07   2.0262995e+03
   8.0272005e-07   2.0423894e+03
   8.0327579e-07   2.1770675e+03
   8.0383152e-07   2.2117983e+03
   8.0438722e-07   2.1307367e+03
   8.0494291e-07   2.0330544e+03
   8.0549857e-07   2.0491808e+03
   8.0605422e-07   2.0242094e+03
   8.0660985e-07   1.8268000e+03
   8.0716546e-07   1.5850751e+03
   8.0772106e-07   1.4533044e+03
   8.0827663e-07   1.5458607e+03
   8.0883219e-07   1.6751830e+03
   8.0938773e-07   1.7125102e+03
   8.0994325e-07   1.7488202e+03
   8.1049875e-07   1.8652657e+03
   8.1105423e-07   1.9131845e+03
   8.1160969e-07   1.7699456e+03
   8.1216514e-07   1.5798977e+03
   8.1272056e-07   1.4999208e+03
   8.1327597e-07   1.5302335e+03
   8.1383135e-07   1.5378835e+03
   8.1438672e-07   1.4730379e+03
   8.1494207e-07   1.4223001e+03
   8.1549740e-07   1.4410654e+03
   8.1605271e-07   1.4160445e+03
   8.1660800e-07   1.3132726e+03
   8.1716327e-07   1.1561675e+03
   8.1771853e-07   1.0526755e+03
   8.1827376e-07   9.9775335e+02
   8.1882897e-07   9.7352944e+02
   8.1938417e-07   9.2214289e+02
   8.1993934e-07   8.2876008e+02
   8.2049450e-07   7.8916401e+02
   8.2104964e-07   7.5359627e+02
   8.2160475e-07   6.7504692e+02
   8.2215985e-07   5.4549037e+02
   8.2271493e-07   4.0340389e+02
   8.2326998e-07   3.2368205e+02
   8.2382502e-07   2.5177244e+02
   8.2438004e-07   1.9822353e+02
   8.2493504e-07   1.4971393e+02
   8.2549001e-07   1.4140717e+02
   8.2604497e-07   1.3988353e+02
   8.2659991e-07   1.6146214e+02
   8.2715483e-07   1.6269833e+02
   8.2770973e-07   1.5790908e+02
   8.2826460e-07   1.4734756e+02
   8.2881946e-07   1.2674902e+02
   8.2937430e-07   1.0991975e+02
   8.2992911e-07   9.9618619e+01
   8.3048391e-07   8.1794677e+01
   8.3103869e-07   5.9207702e+01
   8.3159344e-07   4.6408411e+01
   8.3214818e-07   4.0885691e+01
   8.3270289e-07   3.6116446e+01
   8.3325759e-07   2.1316712e+01
   8.3381226e-07   2.1816211e+01
   8.3436692e-07   1.6799396e+01
   8.3492155e-07   2.1310645e+01
   8.3547616e-07   1.1030567e+01
   8.3603075e-07   1.4037900e+01
   8.3658532e-07   1.1530307e+01
   8.3713987e-07   1.8798070e+01
   8.3769440e-07   1.1027413e+01
   8.3824891e-07   9.5229936e+00
   8.3880340e-07   8.2693770e+00
   8.3935786e-07   8.0182167e+00
   8.3991231e-07   4.7604759e+00
   8.4046673e-07   4.0084602e+00
   8.4102113e-07   9.5192007e+00
   8.4157551e-07   8.5163814e+00
   8.4212987e-07   2.5045833e+00
   8.4268421e-07   4.2573928e+00
   8.4323853e-07   1.2019748e+01
   8.4379283e-07   8.7635784e+00
   8.4434710e-07   3.0043741e+00
   8.4490136e-07   5.5075033e+00
   8.4545559e-07   1.0513531e+01
   8.4600980e-07   5.0060851e+00
   8.4656399e-07   5.5062996e+00
   8.4711815e-07   1.1262080e+01
   8.4767230e-07   7.5075162e+00
   8.4822642e-07   4.7544202e+00
   8.4878053e-07   7.0060130e+00
   8.4933461e-07   5.7545277e+00
   8.4988866e-07   1.5010738e+00
   8.5044270e-07   2.7518195e+00
   8.5099672e-07   2.2513764e+00
   8.5155071e-07   1.7509833e+00
   8.5210468e-07   1.2506400e+00
   8.5265863e-07   1.7508088e+00
   8.5321255e-07   3.7515461e+00
   8.5376646e-07   5.0018122e-01
   8.5432034e-07   8.0025008e+00
   8.5487420e-07   2.0005255e+00
   8.5542804e-07   4.0009171e+00
   8.5598185e-07   6.0012037e+00
   8.5653565e-07   1.7503009e+00
   8.5708942e-07   6.2508955e+00
   8.5764317e-07   3.0003439e+00
   8.5819689e-07   2.0001719e+00
   8.5875060e-07   1.5000860e+00
   8.5930428e-07   3.2500931e+00
   8.5985793e-07   3.5000000e+00
   8.6041157e-07   3.2503516e+00
   8.6096518e-07   7.5019771e+00
   8.6151877e-07   2.7511525e+00
   8.6207234e-07   4.7527294e+00
   8.6262588e-07   5.0036509e-01
   8.6317941e-07   2.7524359e+00
   8.6373290e-07   0.0000000e+00
   8.6428638e-07   5.2562849e+00
   8.6483983e-07   2.5033821e-01
   8.6539326e-07   3.2549509e+00
   8.6594667e-07   5.0084996e+00
   8.6650005e-07   4.7589135e+00
   8.6705341e-07   2.0041064e+00
   8.6760675e-07   1.2527874e+00
   8.6816006e-07   9.7734652e+00
   8.6871335e-07   2.0051670e+00
   8.6926662e-07   3.2589713e+00
   8.6981986e-07   2.5073434e+00
   8.7037308e-07   2.7586020e+00
   8.7092628e-07   2.0066507e+00
   8.7147945e-07   6.0211366e+00
   8.7203260e-07   4.2658110e+00
   8.7258573e-07   4.0156711e+00
   8.7313883e-07   6.2757213e+00
   8.7369191e-07   5.0215654e+00
   8.7424496e-07   5.2736819e+00
   8.7479799e-07   3.0141260e+00
   8.7535100e-07   5.7782847e+00
   8.7590398e-07   7.5385259e-01
   8.7645694e-07   5.0267729e-01
   8.7700988e-07   3.5195036e+00
   8.7756279e-07   7.5434282e-01
   8.7811568e-07   2.7665233e+00
   8.7866854e-07   6.5404729e+00
   8.7922138e-07   2.2645008e+00
   8.7977419e-07   3.0199894e+00
   8.8032699e-07   4.5305759e+00
   8.8087975e-07   7.8032130e+00
   8.8143249e-07   4.2794854e+00
   8.8198521e-07   7.3008175e+00
   8.8253790e-07   4.2800937e+00
   8.8309057e-07   3.0214574e+00
   8.8364322e-07   1.0072240e+00
   8.8419584e-07   6.2955977e+00
   8.8474843e-07   4.7849944e+00
   8.8530100e-07   0.0000000e+00
   8.8585355e-07   1.0075390e+00
   8.8640607e-07   6.0457750e+00
   8.8695857e-07   1.2596491e+00
   8.8751104e-07   2.2675713e+00
   8.8806349e-07   2.0157993e+00
   8.8861591e-07   4.7879516e+00
   8.8916830e-07   2.0161600e+00
   8.8972068e-07   2.7724681e+00
   8.9027302e-07   3.0248080e+00
   8.9082535e-07   2.7730385e+00
   8.9137764e-07   0.0000000e+00
   8.9192991e-07   2.7736342e+00
   8.9248216e-07   1.5130539e+00
   8.9303438e-07   4.5396493e+00
   8.9358658e-07   3.0267580e+00
   8.9413875e-07   3.0270832e+00
   8.9469089e-07   2.7751244e+00
   8.9524301e-07   7.5693926e-01
   8.9579511e-07   3.2804800e+00
   8.9634718e-07   1.7666331e+00
   8.9689922e-07   3.7861154e+00
   8.9745124e-07   1.7670747e+00
   8.9800323e-07   9.5938902e+00
   8.9855520e-07   1.2625118e+00
   8.9910714e-07   2.7778731e+00
   8.9965905e-07   2.0205240e+00
   9.0021094e-07   3.2837834e+00
   9.0076281e-07   1.5158077e+00
   9.0131464e-07   3.5373872e+00
   9.0186646e-07   2.2743578e+00
   9.0241824e-07   7.5822702e-01
   9.0297000e-07   5.5611219e+00
   9.0352173e-07   1.0112568e+00
   9.0407344e-07   2.5285015e-01
   9.0462512e-07   1.0115444e+00
   9.0517678e-07   4.0467745e+00
   9.0572841e-07   2.2766723e+00
   9.0628001e-07   9.6141435e+00
   9.0683159e-07   3.2895717e+00
   9.0738314e-07   7.5925256e-01
   9.0793466e-07   1.5187464e+00
   9.0848616e-07   2.7848110e+00
   9.0903763e-07   2.2788440e+00
   9.0958907e-07   2.0259611e+00
   9.1014049e-07   0.0000000e+00
   9.1069188e-07   0.0000000e+00
   9.1124324e-07   3.5472530e+00
   9.1179458e-07   6.5889101e+00
   9.1234589e-07   5.0692807e+00
   9.1289718e-07   1.2675423e+00
   9.1344843e-07   2.5355291e-01
   9.1399966e-07   1.7751816e+00
   9.1455087e-07   1.2682092e+00
   9.1510204e-07   2.2831836e+00
   9.1565319e-07   1.5224134e+00
   9.1620431e-07   3.8067613e+00
   9.1675541e-07   2.2844936e+00
   9.1730648e-07   2.7926929e+00
   9.1785752e-07   5.3325245e+00
   9.1840853e-07   3.0477399e+00
   9.1895952e-07   2.5402692e-01
   9.1951048e-07   1.5244532e+00
   9.2006141e-07   4.3201762e+00
   9.2061231e-07   1.7794781e+00
   9.2116319e-07   4.3230039e+00
   9.2171404e-07   5.0875517e+00
   9.2226486e-07   1.7812262e+00
   9.2281565e-07   2.5454422e+00
   9.2336642e-07   0.0000000e+00
   9.2391716e-07   0.0000000e+00
   9.2446787e-07   7.3890419e+00
   9.2501855e-07   6.1170773e+00
   9.2556921e-07   5.0993121e-01
   9.2611984e-07   5.8662200e+00
   9.2667044e-07   5.1028107e-01
   9.2722101e-07   0.0000000e+00
   9.2777155e-07   4.3403668e+00
   9.2832207e-07   3.0648402e+00
   9.2887256e-07   2.2994196e+00
   9.2942301e-07   4.3448403e+00
   9.2997345e-07   5.8803334e+00
   9.3052385e-07   2.8133389e+00
   9.3107422e-07   3.3260464e+00
   9.3162457e-07   1.0237657e+00
   9.3217489e-07   3.0723984e+00
   9.3272518e-07   0.0000000e+00
   9.3327544e-07   0.0000000e+00
   9.3382567e-07   2.5630888e-01
   9.3437588e-07   3.8460133e+00
   9.3492606e-07   3.0779156e+00
   9.3547620e-07   5.1317642e-01
   9.3602632e-07   1.7967880e+00
   9.3657641e-07   2.8245785e+00
   9.3712647e-07   2.3118821e+00
   9.3767651e-07   2.5697178e-01
   9.3822651e-07   5.1413568e-01
   9.3877649e-07   2.3144757e+00
   9.3932643e-07   0.0000000e+00
   9.3987635e-07   3.0882771e+00
   9.4042624e-07   0.0000000e+00
   9.4097610e-07   1.0298627e+01
   9.4152593e-07   5.1503012e-01
   9.4207573e-07   7.7269335e-01
   9.4262550e-07   2.3185247e+00
   9.4317524e-07   1.2883164e+00
   9.4372496e-07   2.0617018e+00
   9.4427464e-07   7.7328654e-01
   9.4482430e-07   9.7968428e+00
   9.4537392e-07   4.8994068e+00
   9.4592352e-07   0.0000000e+00
   9.4647308e-07   4.3854819e+00
   9.4702262e-07   4.1283610e+00
   9.4757213e-07   3.6130586e+00
   9.4812161e-07   7.7438606e-01
   9.4867105e-07   3.6145449e+00
   9.4922047e-07   2.0658791e+00
   9.4976986e-07   2.5828802e-01
   9.5031922e-07   2.3250883e+00
   9.5086855e-07   5.6847936e+00
   9.5141785e-07   1.8091941e+00
