\relax 
\providecommand\hyper@newdestlabel[2]{}
\providecommand\HyperFirstAtBeginDocument{\AtBeginDocument}
\HyperFirstAtBeginDocument{\ifx\hyper@anchor\@undefined
\global\let\oldcontentsline\contentsline
\gdef\contentsline#1#2#3#4{\oldcontentsline{#1}{#2}{#3}}
\global\let\oldnewlabel\newlabel
\gdef\newlabel#1#2{\newlabelxx{#1}#2}
\gdef\newlabelxx#1#2#3#4#5#6{\oldnewlabel{#1}{{#2}{#3}}}
\AtEndDocument{\ifx\hyper@anchor\@undefined
\let\contentsline\oldcontentsline
\let\newlabel\oldnewlabel
\fi}
\fi}
\global\let\hyper@last\relax 
\gdef\HyperFirstAtBeginDocument#1{#1}
\providecommand\HyField@AuxAddToFields[1]{}
\providecommand\HyField@AuxAddToCoFields[2]{}
\@writefile{toc}{\contentsline {section}{\numberline {1}Introduction}{1}{section.1}}
\@writefile{toc}{\contentsline {subsection}{\numberline {1.1}Background}{1}{subsection.1.1}}
\@writefile{toc}{\contentsline {subsection}{\numberline {1.2}Prerequisites}{1}{subsection.1.2}}
\@writefile{toc}{\contentsline {section}{\numberline {2}Structure}{2}{section.2}}
\@writefile{toc}{\contentsline {subsection}{\numberline {2.1}axisController}{2}{subsection.2.1}}
\@writefile{lof}{\contentsline {figure}{\numberline {1}{\ignorespaces AxisController GUI.\relax }}{2}{figure.caption.2}}
\providecommand*\caption@xref[2]{\@setref\relax\@undefined{#1}}
\newlabel{fig1}{{1}{2}{AxisController GUI.\relax }{figure.caption.2}{}}
\@writefile{toc}{\contentsline {subsection}{\numberline {2.2}axisDriver}{3}{subsection.2.2}}
\@writefile{toc}{\contentsline {section}{\numberline {3}Practical use}{3}{section.3}}
\@writefile{toc}{\contentsline {section}{\numberline {A}axisDriver class definition}{4}{appendix.A}}
\newlabel{appA}{{A}{4}{axisDriver class definition}{appendix.A}{}}
\@writefile{lol}{\contentsline {lstlisting}{../axisDriver.m}{4}{lstlisting.-1}}
