\contentsline {section}{\numberline {1}Introduction}{1}{section.1}
\contentsline {subsection}{\numberline {1.1}Background}{1}{subsection.1.1}
\contentsline {subsection}{\numberline {1.2}Prerequisites}{1}{subsection.1.2}
\contentsline {section}{\numberline {2}Structure}{2}{section.2}
\contentsline {subsection}{\numberline {2.1}axisController}{2}{subsection.2.1}
\contentsline {subsection}{\numberline {2.2}axisDriver}{3}{subsection.2.2}
\contentsline {section}{\numberline {3}Practical use}{3}{section.3}
\contentsline {section}{\numberline {A}axisDriver class definition}{4}{appendix.A}
