\relax 
\@writefile{toc}{\contentsline {section}{\numberline {1}Introduction}{1}}
\@writefile{toc}{\contentsline {section}{\numberline {2}Prerequisites}{1}}
\@writefile{toc}{\contentsline {section}{\numberline {3}Using the software}{2}}
\@writefile{toc}{\contentsline {subsection}{\numberline {3.1}Working method}{2}}
\@writefile{lof}{\contentsline {figure}{\numberline {1}{\ignorespaces The default GUI of the MagnetMapping interface.\relax }}{3}}
\providecommand*\caption@xref[2]{\@setref\relax\@undefined{#1}}
\newlabel{fig1}{{1}{3}}
\@writefile{toc}{\contentsline {subsection}{\numberline {3.2}Starting the software}{3}}
\@writefile{lof}{\contentsline {figure}{\numberline {2}{\ignorespaces The Settings panel on MagnetMapping.\relax }}{4}}
\newlabel{fig2}{{2}{4}}
