\contentsline {section}{\numberline {1}Introduction}{1}
\contentsline {section}{\numberline {2}Prerequisites}{1}
\contentsline {section}{\numberline {3}Using the software}{2}
\contentsline {subsection}{\numberline {3.1}Working method}{2}
\contentsline {subsection}{\numberline {3.2}Starting the software}{3}
